[
    {
        "id": 1,
        "nombre": "paquetePrueba1",
        "payload":{
            "key1": "data1",
            "key2": "data2",
            "key3": "data3"
        },
        "status": {
            "id" : 1,
            "nombre" : "Prueba1",
            "descripcion": "Status de prueba 1"
        },
        "tarea":{
            "id": 1,
            "nombre": "Tarea1",
            "descripcion": "Descripcion de Tarea1",
            "tramite": {
                "id": 1,
                "nombre": "Tramite1",
                "descripcion": "Descripcion de Tramite1"
            }
        },
        "statusSolicitud": "status solicitud 1",
        "idOficina": 1,
        "idUsuario": 1,
        "nextView" : ""
    },
    {
        "id": 2,
        "nombre": "paquetePrueba2",
        "payload":{
            "key1": "data1",
            "key2": "data2",
            "key3": "data3"
        },
        "status": {
            "id" : 2,
            "nombre" : "Prueba2",
            "descripcion": "Status de prueba 2"
        },
        "tarea":{
            "id": 1,
            "nombre": "Tarea1",
            "descripcion": "Descripcion de Tarea1",
            "tramite": {
                "id": 1,
                "nombre": "Tramite1",
                "descripcion": "Descripcion de Tramite1"
            }
        },
        "statusSolicitud": "status solicitud 1",
        "idOficina": 1,
        "idUsuario": 1
    }
]        
        
        
        
    
